// drunk4 genrated by blender2ogre 0.6.0

material drunk4 
{
    receive_shadows on 

    technique
    {
        pass drunk4
        {
            ambient 0.475816011428833 0.5070750117301941 0.4739550054073334 1.0
            diffuse 0.3806528148152353 0.40566001542896046 0.37916400997585065 1.0
            specular 0.5 0.5 0.5 1.0 12.5
            emissive 0.0 0.0 0.0 1.0

            alpha_to_coverage off
            colour_write on
            cull_hardware clockwise
            depth_check on
            depth_func less_equal
            depth_write on
            illumination_stage 
            light_clip_planes off
            light_scissor off
            lighting on
            normalise_normals off
            polygon_mode solid
            scene_blend one zero
            scene_blend_op add
            shading gouraud
            transparent_sorting on

        }
    }
}
