// mainCharacter2 genrated by blender2ogre 0.6.0

material mainCharacter2 
{
    receive_shadows on 

    technique
    {
        pass mainCharacter2
        {
            ambient 0.09519443660974503 0.1413961797952652 0.31081250309944153 1.0
            diffuse 0.07615555042260214 0.11311694552178597 0.248650006184727 1.0
            specular 0.5 0.5 0.5 1.0 12.5
            emissive 0.0 0.0 0.0 1.0

            alpha_to_coverage off
            colour_write on
            cull_hardware clockwise
            depth_check on
            depth_func less_equal
            depth_write on
            illumination_stage 
            light_clip_planes off
            light_scissor off
            lighting on
            normalise_normals off
            polygon_mode solid
            scene_blend one zero
            scene_blend_op add
            shading gouraud
            transparent_sorting on

        }
    }
}
