// seller3 genrated by blender2ogre 0.6.0

material seller3 
{
    receive_shadows on 

    technique
    {
        pass seller3
        {
            ambient 0.1626420021057129 0.11391899734735489 0.0931600034236908 1.0
            diffuse 0.13011360362341406 0.09113519923590419 0.07452800384950642 1.0
            specular 0.5 0.5 0.5 1.0 12.5
            emissive 0.0 0.0 0.0 1.0

            alpha_to_coverage off
            colour_write on
            cull_hardware clockwise
            depth_check on
            depth_func less_equal
            depth_write on
            illumination_stage 
            light_clip_planes off
            light_scissor off
            lighting on
            normalise_normals off
            polygon_mode solid
            scene_blend one zero
            scene_blend_op add
            shading gouraud
            transparent_sorting on

        }
    }
}
